8.1754 11.628
13.105 8.5131
12.632 7.3116
11.243 8.5662
11.064 7.318
9.6886 10.009
10.683 10.22
12.428 9.0068
15.395 6.5565
11.109 12.298
9.7893 12.36
11.47 9.8496
11.334 12.008
11.316 9.2297
9.8192 8.4057
10.021 9.4594
11.707 9.0749
10.051 10.079
12.717 8.9872
8.8565 10.668
10.365 9.6289
8.8312 12.655
10.829 9.4988
10.291 10.898
9.5468 10.409
8.9435 11.746
12.55 11.836
12.697 4.3335
12.583 7.6429
13.979 7.4921
13.009 8.3473
11.148 8.9241
9.7438 11.304
11.394 6.8019
10.394 11.801
9.5134 9.6998
11.5 7.4393
8.7885 11.751
8.9341 9.7728
9.1996 11.497
9.5301 9.97
12.656 8.1361
11.882 8.814
9.7204 12.576
10.981 9.9965
10.775 10.529
9.8839 11.502
10.853 9.5217
11.947 8.2135
9.8097 12.313
10.46 10.92
12.308 8.0601
13.169 9.4631
13.629 6.8547
13.281 8.4231
9.5455 10.816
10.503 10.186
8.9067 14.132
13.726 10.12
9.4753 9.7303
13.966 8.3151
9.9548 12.446
10.025 11.576
10.981 9.3147
6.3994 13.044
6.0404 12.288
9.0655 11.064
8.5108 12.085
10.614 9.4376
9.1774 8.4225
12.398 8.5033
11.61 9.5095
9.8696 12.102
8.6802 10.92
10.239 10.741
10.415 12.068
10.221 10.325
9.0766 11.2
9.628 12.488
11.041 10.204
15.468 5.3693
8.7845 11.945
10.37 10.52
10.78 8.3727
14.072 8.4255
12.547 8.6115
10.449 9.4882
13.223 9.7788
8.8939 11.427
6.5113 13.685
10.546 8.8475
11.865 9.9838
7.1126 13.516
11.997 10.165
8.9789 12.009
10.897 13.011
11.625 11.893
11.338 10.947
9.096 11.384
7.7872 15.523
10.38 12.298
8.3823 12.285
7.7187 12.275
10.426 11.673
11.152 11.504
12.31 9.9258
7.8392 13.364
10.296 11.363
14.261 5.4958
11.332 10.611
12.31 7.5055
13.32 7.2144
9.5496 13.177
9.9601 12.078
13.767 6.7991
14.709 7.7458
10.412 11.193
12.664 8.8159
7.7908 12.796
13.535 6.8871
7.6506 11.513
11.008 9.3556
10.322 10.845
9.2379 12.004
11.502 10.557
9.6157 9.9374
15.786 5.6776
10.138 8.3938
8.9564 13.222
11.469 8.2386
10.628 7.8993
10.445 9.5045
10.027 8.6355
6.7268 11.87
10.584 10.597
9.6462 10.58
10.404 10.857
12.438 7.1134
11.509 10.775
13.739 9.1565
10.763 12.763
10 9.5782
5.5956 14.371
12.939 9.4632
8.9979 13.789
9.5001 7.9575
8.3373 11.653
12.063 8.1877
12.375 8.1761
9.0203 10.175
13.727 6.0893
8.9155 11.586
12.021 8.9816
8.7808 12.833
9.1747 11.386
10.251 10.689
9.4057 10.578
10.486 9.9722
10.299 7.6744
13.462 8.6425
12.138 6.9681
12.943 7.9171
9.9923 11.932
12.749 8.0725
11.895 9.9701
11.16 9.9198
13.891 6.2866
11.436 10.676
11.48 11.027
9.0298 12.507
12.199 7.529
12.683 7.2801
7.9262 12.189
8.5821 11.974
12.046 11.001
12.253 11.771
10.33 11.667
12.384 8.5476
10.965 11.819
12.036 8.1807
7.96 11.401
11.823 9.2101
13.29 10.593
11.191 8.8331
10.734 9.8381
15.718 6.7281
10.175 8.7187
11.333 9.8393
11.031 11.004
16.594 6.6534
11.789 9.7937
11.786 8.6391
12.973 8.2282
15.563 5.6988
9.5131 11.163
4.1527 14.655
9.2003 10.061
8.4082 11.347
10.57 9.0418
10.378 11.479
8.871 10.955
13.481 10.267
11.592 8.9391
11.212 9.1506
11.97 9.7411
10.142 11.237
12.23 9.2991
7.5639 13.939
10.461 10.367
11.027 10.231
9.9375 12.595
7.5579 12.622
9.5016 10.048
9.4599 12.034
11.048 11.193
6.9198 11.142
10.924 9.6074
11.276 10.04
10.883 9.6093
9.5739 11.037
11.081 12.106
10.526 11.594
10.314 11.845
12.388 10.64
11.675 9.5646
12.579 6.4699
12.378 7.0718
12.337 5.3547
11.915 7.9626
8.6007 13.246
9.6049 11.581
7.5318 12.914
10.884 11.334
8.8093 9.7165
7.8905 11.925
9.2198 12.493
13.684 10.803
10.573 12.659
8.6404 10.292
14.341 5.7227
9.1635 11.997
6.9992 12.731
10.523 10.103
11.608 8.6348
9.5776 9.2231
8.9692 12.749
14.744 6.9134
7.1093 13.023
10.121 11.773
7.4362 13.333
